{"href": "https://api.spotify.com/v1/artists/1dfeR4HaWDbWqFHLkxsg1d/albums?offset=0&limit=20&locale=*&include_groups=album,single,compilation,appears_on", "limit": 20, "next": "https://api.spotify.com/v1/artists/1dfeR4HaWDbWqFHLkxsg1d/albums?offset=20&limit=20&locale=*&include_groups=album,single,compilation,appears_on", "offset": 0, "previous": null, "total": 234, "items": [{"album_type": "album", "total_tracks": 47, "available_markets": ["CA", "US"], "external_urls": {"spotify": "https://open.spotify.com/album/3CY1m3w0rn3MEiYrDEpiAv"}, "href": "https://api.spotify.com/v1/albums/3CY1m3w0rn3MEiYrDEpiAv", "id": "3CY1m3w0rn3MEiYrDEpiAv", "images": [{"url": "https://i.scdn.co/image/ab67616d0000b27377dd4e8cd4e792033c92b5a2", "height": 640, "width": 640}, {"url": "https://i.scdn.co/image/ab67616d00001e0277dd4e8cd4e792033c92b5a2", "height": 300, "width": 300}, {"url": "https://i.scdn.co/image/ab67616d0000485177dd4e8cd4e792033c92b5a2", "height": 64, "width": 64}], "name": "The Miracle (Collector's Edition)", "release_date": "2022-11-18", "release_date_precision": "day", "type": "album", "uri": "spotify:album:3CY1m3w0rn3MEiYrDEpiAv", "artists": [{"external_urls": {"spotify": "https://open.spotify.com/artist/1dfeR4HaWDbWqFHLkxsg1d"}, "href": "https://api.spotify.com/v1/artists/1dfeR4HaWDbWqFHLkxsg1d", "id": "1dfeR4HaWDbWqFHLkxsg1d", "name": "Queen", "type": "artist", "uri": "spotify:artist:1dfeR4HaWDbWqFHLkxsg1d"}], "album_group": "album"}, {"album_type": "album", "total_tracks": 20, "available_markets": ["CA", "US"], "external_urls": {"spotify": "https://open.spotify.com/album/7zhwCAUQETk5MXUJBYqc0C"}, "href": "https://api.spotify.com/v1/albums/7zhwCAUQETk5MXUJBYqc0C", "id": "7zhwCAUQETk5MXUJBYqc0C", "images": [{"url": "https://i.scdn.co/image/ab67616d0000b27317fe544b2d88e816ce135c4f", "height": 640, "width": 640}, {"url": "https://i.scdn.co/image/ab67616d00001e0217fe544b2d88e816ce135c4f", "height": 300, "width": 300}, {"url": "https://i.scdn.co/image/ab67616d0000485117fe544b2d88e816ce135c4f", "height": 64, "width": 64}], "name": "Live Around the World (Deluxe)", "release_date": "2020-10-02", "release_date_precision": "day", "type": "album", "uri": "spotify:album:7zhwCAUQETk5MXUJBYqc0C", "artists": [{"external_urls": {"spotify": "https://open.spotify.com/artist/1dfeR4HaWDbWqFHLkxsg1d"}, "href": "https://api.spotify.com/v1/artists/1dfeR4HaWDbWqFHLkxsg1d", "id": "1dfeR4HaWDbWqFHLkxsg1d", "name": "Queen", "type": "artist", "uri": "spotify:artist:1dfeR4HaWDbWqFHLkxsg1d"}, {"external_urls": {"spotify": "https://open.spotify.com/artist/6prmLEyn4LfHlD9NnXWlf7"}, "href": "https://api.spotify.com/v1/artists/6prmLEyn4LfHlD9NnXWlf7", "id": "6prmLEyn4LfHlD9NnXWlf7", "name": "Adam Lambert", "type": "artist", "uri": "spotify:artist:6prmLEyn4LfHlD9NnXWlf7"}], "album_group": "album"}, {"album_type": "album", "total_tracks": 22, "available_markets": ["CA", "US"], "external_urls": {"spotify": "https://open.spotify.com/album/3BHe7LbW5yRjyqXNJ3A6mW"}, "href": "https://api.spotify.com/v1/albums/3BHe7LbW5yRjyqXNJ3A6mW", "id": "3BHe7LbW5yRjyqXNJ3A6mW", "images": [{"url": "https://i.scdn.co/image/ab67616d0000b27328581cfe196c266c132a9d62", "height": 640, "width": 640}, {"url": "https://i.scdn.co/image/ab67616d00001e0228581cfe196c266c132a9d62", "height": 300, "width": 300}, {"url": "https://i.scdn.co/image/ab67616d0000485128581cfe196c266c132a9d62", "height": 64, "width": 64}], "name": "Bohemian Rhapsody (The Original Soundtrack)", "release_date": "2018-10-19", "release_date_precision": "day", "type": "album", "uri": "spotify:album:3BHe7LbW5yRjyqXNJ3A6mW", "artists": [{"external_urls": {"spotify": "https://open.spotify.com/artist/1dfeR4HaWDbWqFHLkxsg1d"}, "href": "https://api.spotify.com/v1/artists/1dfeR4HaWDbWqFHLkxsg1d", "id": "1dfeR4HaWDbWqFHLkxsg1d", "name": "Queen", "type": "artist", "uri": "spotify:artist:1dfeR4HaWDbWqFHLkxsg1d"}], "album_group": "album"}, {"album_type": "album", "total_tracks": 24, "available_markets": ["CA", "US"], "external_urls": {"spotify": "https://open.spotify.com/album/60TXSuzXQoEy3p5cQEkLu7"}, "href": "https://api.spotify.com/v1/albums/60TXSuzXQoEy3p5cQEkLu7", "id": "60TXSuzXQoEy3p5cQEkLu7", "images": [{"url": "https://i.scdn.co/image/ab67616d0000b273ac65a45b662514ebec164589", "height": 640, "width": 640}, {"url": "https://i.scdn.co/image/ab67616d00001e02ac65a45b662514ebec164589", "height": 300, "width": 300}, {"url": "https://i.scdn.co/image/ab67616d00004851ac65a45b662514ebec164589", "height": 64, "width": 64}], "name": "Queen On Air", "release_date": "2016-10-21", "release_date_precision": "day", "type": "album", "uri": "spotify:album:60TXSuzXQoEy3p5cQEkLu7", "artists": [{"external_urls": {"spotify": "https://open.spotify.com/artist/1dfeR4HaWDbWqFHLkxsg1d"}, "href": "https://api.spotify.com/v1/artists/1dfeR4HaWDbWqFHLkxsg1d", "id": "1dfeR4HaWDbWqFHLkxsg1d", "name": "Queen", "type": "artist", "uri": "spotify:artist:1dfeR4HaWDbWqFHLkxsg1d"}], "album_group": "album"}, {"album_type": "album", "total_tracks": 19, "available_markets": ["CA", "US"], "external_urls": {"spotify": "https://open.spotify.com/album/03fubwn4664emOoK7WkOdK"}, "href": "https://api.spotify.com/v1/albums/03fubwn4664emOoK7WkOdK", "id": "03fubwn4664emOoK7WkOdK", "images": [{"url": "https://i.scdn.co/image/ab67616d0000b273b0ee5b35fcf944d5e3221d2b", "height": 640, "width": 640}, {"url": "https://i.scdn.co/image/ab67616d00001e02b0ee5b35fcf944d5e3221d2b", "height": 300, "width": 300}, {"url": "https://i.scdn.co/image/ab67616d00004851b0ee5b35fcf944d5e3221d2b", "height": 64, "width": 64}], "name": "A Night at the Odeon", "release_date": "2015-01-01", "release_date_precision": "day", "type": "album", "uri": "spotify:album:03fubwn4664emOoK7WkOdK", "artists": [{"external_urls": {"spotify": "https://open.spotify.com/artist/1dfeR4HaWDbWqFHLkxsg1d"}, "href": "https://api.spotify.com/v1/artists/1dfeR4HaWDbWqFHLkxsg1d", "id": "1dfeR4HaWDbWqFHLkxsg1d", "name": "Queen", "type": "artist", "uri": "spotify:artist:1dfeR4HaWDbWqFHLkxsg1d"}], "album_group": "album"}, {"album_type": "album", "total_tracks": 27, "available_markets": ["CA", "US"], "external_urls": {"spotify": "https://open.spotify.com/album/4qiBZSTJnt1zlVF7jdWOSL"}, "href": "https://api.spotify.com/v1/albums/4qiBZSTJnt1zlVF7jdWOSL", "id": "4qiBZSTJnt1zlVF7jdWOSL", "images": [{"url": "https://i.scdn.co/image/ab67616d0000b273be24736108a3117fec034cff", "height": 640, "width": 640}, {"url": "https://i.scdn.co/image/ab67616d00001e02be24736108a3117fec034cff", "height": 300, "width": 300}, {"url": "https://i.scdn.co/image/ab67616d00004851be24736108a3117fec034cff", "height": 64, "width": 64}], "name": "Hungarian Rhapsody (Live In Budapest 1986)", "release_date": "2014-11-14", "release_date_precision": "day", "type": "album", "uri": "spotify:album:4qiBZSTJnt1zlVF7jdWOSL", "artists": [{"external_urls": {"spotify": "https://open.spotify.com/artist/1dfeR4HaWDbWqFHLkxsg1d"}, "href": "https://api.spotify.com/v1/artists/1dfeR4HaWDbWqFHLkxsg1d", "id": "1dfeR4HaWDbWqFHLkxsg1d", "name": "Queen", "type": "artist", "uri": "spotify:artist:1dfeR4HaWDbWqFHLkxsg1d"}], "album_group": "album"}, {"album_type": "album", "total_tracks": 41, "available_markets": ["CA", "US"], "external_urls": {"spotify": "https://open.spotify.com/album/5wTdQlDnvBtUO3ptbwqeyz"}, "href": "https://api.spotify.com/v1/albums/5wTdQlDnvBtUO3ptbwqeyz", "id": "5wTdQlDnvBtUO3ptbwqeyz", "images": [{"url": "https://i.scdn.co/image/ab67616d0000b27317b3c4b46719258b5091cc5f", "height": 640, "width": 640}, {"url": "https://i.scdn.co/image/ab67616d00001e0217b3c4b46719258b5091cc5f", "height": 300, "width": 300}, {"url": "https://i.scdn.co/image/ab67616d0000485117b3c4b46719258b5091cc5f", "height": 64, "width": 64}], "name": "Live at the Rainbow \u201874", "release_date": "2014-01-01", "release_date_precision": "day", "type": "album", "uri": "spotify:album:5wTdQlDnvBtUO3ptbwqeyz", "artists": [{"external_urls": {"spotify": "https://open.spotify.com/artist/1dfeR4HaWDbWqFHLkxsg1d"}, "href": "https://api.spotify.com/v1/artists/1dfeR4HaWDbWqFHLkxsg1d", "id": "1dfeR4HaWDbWqFHLkxsg1d", "name": "Queen", "type": "artist", "uri": "spotify:artist:1dfeR4HaWDbWqFHLkxsg1d"}], "album_group": "album"}, {"album_type": "album", "total_tracks": 15, "available_markets": ["CA", "US"], "external_urls": {"spotify": "https://open.spotify.com/album/7raY9fyrzExnOpNtccVUOp"}, "href": "https://api.spotify.com/v1/albums/7raY9fyrzExnOpNtccVUOp", "id": "7raY9fyrzExnOpNtccVUOp", "images": [{"url": "https://i.scdn.co/image/ab67616d0000b273b7e38bd581540a15232932ac", "height": 640, "width": 640}, {"url": "https://i.scdn.co/image/ab67616d00001e02b7e38bd581540a15232932ac", "height": 300, "width": 300}, {"url": "https://i.scdn.co/image/ab67616d00004851b7e38bd581540a15232932ac", "height": 64, "width": 64}], "name": "Deep Cuts 3 [(1984-1995) 2011 Remaster]", "release_date": "2011-09-05", "release_date_precision": "day", "type": "album", "uri": "spotify:album:7raY9fyrzExnOpNtccVUOp", "artists": [{"external_urls": {"spotify": "https://open.spotify.com/artist/1dfeR4HaWDbWqFHLkxsg1d"}, "href": "https://api.spotify.com/v1/artists/1dfeR4HaWDbWqFHLkxsg1d", "id": "1dfeR4HaWDbWqFHLkxsg1d", "name": "Queen", "type": "artist", "uri": "spotify:artist:1dfeR4HaWDbWqFHLkxsg1d"}], "album_group": "album"}, {"album_type": "album", "total_tracks": 14, "available_markets": ["CA", "US"], "external_urls": {"spotify": "https://open.spotify.com/album/3O1Q71H5oHb4Hu2BVdN4j6"}, "href": "https://api.spotify.com/v1/albums/3O1Q71H5oHb4Hu2BVdN4j6", "id": "3O1Q71H5oHb4Hu2BVdN4j6", "images": [{"url": "https://i.scdn.co/image/ab67616d0000b273eb1fa02614d7bac50740a1bd", "height": 640, "width": 640}, {"url": "https://i.scdn.co/image/ab67616d00001e02eb1fa02614d7bac50740a1bd", "height": 300, "width": 300}, {"url": "https://i.scdn.co/image/ab67616d00004851eb1fa02614d7bac50740a1bd", "height": 64, "width": 64}], "name": "Deep Cuts 2 [(1977-1982) 2011 Remaster]", "release_date": "2011-06-27", "release_date_precision": "day", "type": "album", "uri": "spotify:album:3O1Q71H5oHb4Hu2BVdN4j6", "artists": [{"external_urls": {"spotify": "https://open.spotify.com/artist/1dfeR4HaWDbWqFHLkxsg1d"}, "href": "https://api.spotify.com/v1/artists/1dfeR4HaWDbWqFHLkxsg1d", "id": "1dfeR4HaWDbWqFHLkxsg1d", "name": "Queen", "type": "artist", "uri": "spotify:artist:1dfeR4HaWDbWqFHLkxsg1d"}], "album_group": "album"}, {"album_type": "album", "total_tracks": 14, "available_markets": ["CA", "US"], "external_urls": {"spotify": "https://open.spotify.com/album/5xuzYEmhEiXIY5Js0rnim2"}, "href": "https://api.spotify.com/v1/albums/5xuzYEmhEiXIY5Js0rnim2", "id": "5xuzYEmhEiXIY5Js0rnim2", "images": [{"url": "https://i.scdn.co/image/ab67616d0000b273a59aa4004863c310cb3433e7", "height": 640, "width": 640}, {"url": "https://i.scdn.co/image/ab67616d00001e02a59aa4004863c310cb3433e7", "height": 300, "width": 300}, {"url": "https://i.scdn.co/image/ab67616d00004851a59aa4004863c310cb3433e7", "height": 64, "width": 64}], "name": "Deep Cuts [(1973-1976) 2011 Remaster]", "release_date": "2011-03-14", "release_date_precision": "day", "type": "album", "uri": "spotify:album:5xuzYEmhEiXIY5Js0rnim2", "artists": [{"external_urls": {"spotify": "https://open.spotify.com/artist/1dfeR4HaWDbWqFHLkxsg1d"}, "href": "https://api.spotify.com/v1/artists/1dfeR4HaWDbWqFHLkxsg1d", "id": "1dfeR4HaWDbWqFHLkxsg1d", "name": "Queen", "type": "artist", "uri": "spotify:artist:1dfeR4HaWDbWqFHLkxsg1d"}], "album_group": "album"}, {"album_type": "album", "total_tracks": 28, "available_markets": ["CA", "US"], "external_urls": {"spotify": "https://open.spotify.com/album/2IY3Ty8CrUyvpibt8AcZmp"}, "href": "https://api.spotify.com/v1/albums/2IY3Ty8CrUyvpibt8AcZmp", "id": "2IY3Ty8CrUyvpibt8AcZmp", "images": [{"url": "https://i.scdn.co/image/ab67616d0000b273327cf890a43bc755c77b5ad7", "height": 640, "width": 640}, {"url": "https://i.scdn.co/image/ab67616d00001e02327cf890a43bc755c77b5ad7", "height": 300, "width": 300}, {"url": "https://i.scdn.co/image/ab67616d00004851327cf890a43bc755c77b5ad7", "height": 64, "width": 64}], "name": "Queen Rock Montreal", "release_date": "2007-10-29", "release_date_precision": "day", "type": "album", "uri": "spotify:album:2IY3Ty8CrUyvpibt8AcZmp", "artists": [{"external_urls": {"spotify": "https://open.spotify.com/artist/1dfeR4HaWDbWqFHLkxsg1d"}, "href": "https://api.spotify.com/v1/artists/1dfeR4HaWDbWqFHLkxsg1d", "id": "1dfeR4HaWDbWqFHLkxsg1d", "name": "Queen", "type": "artist", "uri": "spotify:artist:1dfeR4HaWDbWqFHLkxsg1d"}], "album_group": "album"}, {"album_type": "album", "total_tracks": 25, "available_markets": ["CA", "US"], "external_urls": {"spotify": "https://open.spotify.com/album/7gJGZIFnUyXP2wa0gdIjRY"}, "href": "https://api.spotify.com/v1/albums/7gJGZIFnUyXP2wa0gdIjRY", "id": "7gJGZIFnUyXP2wa0gdIjRY", "images": [{"url": "https://i.scdn.co/image/ab67616d0000b273051da27183803837d011ea88", "height": 640, "width": 640}, {"url": "https://i.scdn.co/image/ab67616d00001e02051da27183803837d011ea88", "height": 300, "width": 300}, {"url": "https://i.scdn.co/image/ab67616d00004851051da27183803837d011ea88", "height": 64, "width": 64}], "name": "On Fire: Live At The Bowl", "release_date": "2004-11-04", "release_date_precision": "day", "type": "album", "uri": "spotify:album:7gJGZIFnUyXP2wa0gdIjRY", "artists": [{"external_urls": {"spotify": "https://open.spotify.com/artist/1dfeR4HaWDbWqFHLkxsg1d"}, "href": "https://api.spotify.com/v1/artists/1dfeR4HaWDbWqFHLkxsg1d", "id": "1dfeR4HaWDbWqFHLkxsg1d", "name": "Queen", "type": "artist", "uri": "spotify:artist:1dfeR4HaWDbWqFHLkxsg1d"}], "album_group": "album"}, {"album_type": "album", "total_tracks": 19, "available_markets": ["CA", "US"], "external_urls": {"spotify": "https://open.spotify.com/album/4fODEKBcruDGTihYHvBXBD"}, "href": "https://api.spotify.com/v1/albums/4fODEKBcruDGTihYHvBXBD", "id": "4fODEKBcruDGTihYHvBXBD", "images": [{"url": "https://i.scdn.co/image/ab67616d0000b2733f2006dd19614640133b50ae", "height": 640, "width": 640}, {"url": "https://i.scdn.co/image/ab67616d00001e023f2006dd19614640133b50ae", "height": 300, "width": 300}, {"url": "https://i.scdn.co/image/ab67616d000048513f2006dd19614640133b50ae", "height": 64, "width": 64}], "name": "Made in Heaven (Deluxe Remastered Version)", "release_date": "1995-11-06", "release_date_precision": "day", "type": "album", "uri": "spotify:album:4fODEKBcruDGTihYHvBXBD", "artists": [{"external_urls": {"spotify": "https://open.spotify.com/artist/1dfeR4HaWDbWqFHLkxsg1d"}, "href": "https://api.spotify.com/v1/artists/1dfeR4HaWDbWqFHLkxsg1d", "id": "1dfeR4HaWDbWqFHLkxsg1d", "name": "Queen", "type": "artist", "uri": "spotify:artist:1dfeR4HaWDbWqFHLkxsg1d"}], "album_group": "album"}, {"album_type": "album", "total_tracks": 13, "available_markets": ["CA", "US"], "external_urls": {"spotify": "https://open.spotify.com/album/2FkwqbLE84vjGOeTJMzRfF"}, "href": "https://api.spotify.com/v1/albums/2FkwqbLE84vjGOeTJMzRfF", "id": "2FkwqbLE84vjGOeTJMzRfF", "images": [{"url": "https://i.scdn.co/image/ab67616d0000b273fbd60f9094cd3905cdb0c3f7", "height": 640, "width": 640}, {"url": "https://i.scdn.co/image/ab67616d00001e02fbd60f9094cd3905cdb0c3f7", "height": 300, "width": 300}, {"url": "https://i.scdn.co/image/ab67616d00004851fbd60f9094cd3905cdb0c3f7", "height": 64, "width": 64}], "name": "Made in Heaven", "release_date": "1995-11-06", "release_date_precision": "day", "type": "album", "uri": "spotify:album:2FkwqbLE84vjGOeTJMzRfF", "artists": [{"external_urls": {"spotify": "https://open.spotify.com/artist/1dfeR4HaWDbWqFHLkxsg1d"}, "href": "https://api.spotify.com/v1/artists/1dfeR4HaWDbWqFHLkxsg1d", "id": "1dfeR4HaWDbWqFHLkxsg1d", "name": "Queen", "type": "artist", "uri": "spotify:artist:1dfeR4HaWDbWqFHLkxsg1d"}], "album_group": "album"}, {"album_type": "album", "total_tracks": 32, "available_markets": ["CA", "US"], "external_urls": {"spotify": "https://open.spotify.com/album/3uk2r2tVRHy9L15rHJhD2S"}, "href": "https://api.spotify.com/v1/albums/3uk2r2tVRHy9L15rHJhD2S", "id": "3uk2r2tVRHy9L15rHJhD2S", "images": [{"url": "https://i.scdn.co/image/ab67616d0000b27381b9817153e6b30dedb8813f", "height": 640, "width": 640}, {"url": "https://i.scdn.co/image/ab67616d00001e0281b9817153e6b30dedb8813f", "height": 300, "width": 300}, {"url": "https://i.scdn.co/image/ab67616d0000485181b9817153e6b30dedb8813f", "height": 64, "width": 64}], "name": "Live At Wembley Stadium", "release_date": "1992-05-26", "release_date_precision": "day", "type": "album", "uri": "spotify:album:3uk2r2tVRHy9L15rHJhD2S", "artists": [{"external_urls": {"spotify": "https://open.spotify.com/artist/1dfeR4HaWDbWqFHLkxsg1d"}, "href": "https://api.spotify.com/v1/artists/1dfeR4HaWDbWqFHLkxsg1d", "id": "1dfeR4HaWDbWqFHLkxsg1d", "name": "Queen", "type": "artist", "uri": "spotify:artist:1dfeR4HaWDbWqFHLkxsg1d"}], "album_group": "album"}, {"album_type": "album", "total_tracks": 17, "available_markets": ["CA", "US"], "external_urls": {"spotify": "https://open.spotify.com/album/2LC6PPb29hs8rkPHBjUVXJ"}, "href": "https://api.spotify.com/v1/albums/2LC6PPb29hs8rkPHBjUVXJ", "id": "2LC6PPb29hs8rkPHBjUVXJ", "images": [{"url": "https://i.scdn.co/image/ab67616d0000b27338cc7608615675b52d894ce7", "height": 640, "width": 640}, {"url": "https://i.scdn.co/image/ab67616d00001e0238cc7608615675b52d894ce7", "height": 300, "width": 300}, {"url": "https://i.scdn.co/image/ab67616d0000485138cc7608615675b52d894ce7", "height": 64, "width": 64}], "name": "Innuendo (Deluxe Remastered Version)", "release_date": "1991-02-05", "release_date_precision": "day", "type": "album", "uri": "spotify:album:2LC6PPb29hs8rkPHBjUVXJ", "artists": [{"external_urls": {"spotify": "https://open.spotify.com/artist/1dfeR4HaWDbWqFHLkxsg1d"}, "href": "https://api.spotify.com/v1/artists/1dfeR4HaWDbWqFHLkxsg1d", "id": "1dfeR4HaWDbWqFHLkxsg1d", "name": "Queen", "type": "artist", "uri": "spotify:artist:1dfeR4HaWDbWqFHLkxsg1d"}], "album_group": "album"}, {"album_type": "album", "total_tracks": 12, "available_markets": ["CA", "US"], "external_urls": {"spotify": "https://open.spotify.com/album/3jYy7yGNCysTHE8MKrIF1k"}, "href": "https://api.spotify.com/v1/albums/3jYy7yGNCysTHE8MKrIF1k", "id": "3jYy7yGNCysTHE8MKrIF1k", "images": [{"url": "https://i.scdn.co/image/ab67616d0000b273d1ab23495138ff8444c24b34", "height": 640, "width": 640}, {"url": "https://i.scdn.co/image/ab67616d00001e02d1ab23495138ff8444c24b34", "height": 300, "width": 300}, {"url": "https://i.scdn.co/image/ab67616d00004851d1ab23495138ff8444c24b34", "height": 64, "width": 64}], "name": "Innuendo", "release_date": "1991-02-04", "release_date_precision": "day", "type": "album", "uri": "spotify:album:3jYy7yGNCysTHE8MKrIF1k", "artists": [{"external_urls": {"spotify": "https://open.spotify.com/artist/1dfeR4HaWDbWqFHLkxsg1d"}, "href": "https://api.spotify.com/v1/artists/1dfeR4HaWDbWqFHLkxsg1d", "id": "1dfeR4HaWDbWqFHLkxsg1d", "name": "Queen", "type": "artist", "uri": "spotify:artist:1dfeR4HaWDbWqFHLkxsg1d"}], "album_group": "album"}, {"album_type": "album", "total_tracks": 17, "available_markets": ["CA", "US"], "external_urls": {"spotify": "https://open.spotify.com/album/0kCPII9EM5eqHHCRo1EVjs"}, "href": "https://api.spotify.com/v1/albums/0kCPII9EM5eqHHCRo1EVjs", "id": "0kCPII9EM5eqHHCRo1EVjs", "images": [{"url": "https://i.scdn.co/image/ab67616d0000b27351ba9558a4638b6ebff9c746", "height": 640, "width": 640}, {"url": "https://i.scdn.co/image/ab67616d00001e0251ba9558a4638b6ebff9c746", "height": 300, "width": 300}, {"url": "https://i.scdn.co/image/ab67616d0000485151ba9558a4638b6ebff9c746", "height": 64, "width": 64}], "name": "The Miracle (Deluxe Remastered Version)", "release_date": "1989-05-22", "release_date_precision": "day", "type": "album", "uri": "spotify:album:0kCPII9EM5eqHHCRo1EVjs", "artists": [{"external_urls": {"spotify": "https://open.spotify.com/artist/1dfeR4HaWDbWqFHLkxsg1d"}, "href": "https://api.spotify.com/v1/artists/1dfeR4HaWDbWqFHLkxsg1d", "id": "1dfeR4HaWDbWqFHLkxsg1d", "name": "Queen", "type": "artist", "uri": "spotify:artist:1dfeR4HaWDbWqFHLkxsg1d"}], "album_group": "album"}, {"album_type": "album", "total_tracks": 14, "available_markets": ["CA", "US"], "external_urls": {"spotify": "https://open.spotify.com/album/5IQU4NUxVKn0tdBpJjKCyd"}, "href": "https://api.spotify.com/v1/albums/5IQU4NUxVKn0tdBpJjKCyd", "id": "5IQU4NUxVKn0tdBpJjKCyd", "images": [{"url": "https://i.scdn.co/image/ab67616d0000b27318cb992f76089e43eb0473d8", "height": 640, "width": 640}, {"url": "https://i.scdn.co/image/ab67616d00001e0218cb992f76089e43eb0473d8", "height": 300, "width": 300}, {"url": "https://i.scdn.co/image/ab67616d0000485118cb992f76089e43eb0473d8", "height": 64, "width": 64}], "name": "The Miracle", "release_date": "1989-05-22", "release_date_precision": "day", "type": "album", "uri": "spotify:album:5IQU4NUxVKn0tdBpJjKCyd", "artists": [{"external_urls": {"spotify": "https://open.spotify.com/artist/1dfeR4HaWDbWqFHLkxsg1d"}, "href": "https://api.spotify.com/v1/artists/1dfeR4HaWDbWqFHLkxsg1d", "id": "1dfeR4HaWDbWqFHLkxsg1d", "name": "Queen", "type": "artist", "uri": "spotify:artist:1dfeR4HaWDbWqFHLkxsg1d"}], "album_group": "album"}, {"album_type": "album", "total_tracks": 16, "available_markets": ["CA", "US"], "external_urls": {"spotify": "https://open.spotify.com/album/6QYnikkyKvjmFtTiZVeCW7"}, "href": "https://api.spotify.com/v1/albums/6QYnikkyKvjmFtTiZVeCW7", "id": "6QYnikkyKvjmFtTiZVeCW7", "images": [{"url": "https://i.scdn.co/image/ab67616d0000b273b2f32a40b64bc00dffa59281", "height": 640, "width": 640}, {"url": "https://i.scdn.co/image/ab67616d00001e02b2f32a40b64bc00dffa59281", "height": 300, "width": 300}, {"url": "https://i.scdn.co/image/ab67616d00004851b2f32a40b64bc00dffa59281", "height": 64, "width": 64}], "name": "A Kind of Magic (Deluxe Remastered Version)", "release_date": "1986-06-02", "release_date_precision": "day", "type": "album", "uri": "spotify:album:6QYnikkyKvjmFtTiZVeCW7", "artists": [{"external_urls": {"spotify": "https://open.spotify.com/artist/1dfeR4HaWDbWqFHLkxsg1d"}, "href": "https://api.spotify.com/v1/artists/1dfeR4HaWDbWqFHLkxsg1d", "id": "1dfeR4HaWDbWqFHLkxsg1d", "name": "Queen", "type": "artist", "uri": "spotify:artist:1dfeR4HaWDbWqFHLkxsg1d"}], "album_group": "album"}]}